UseCase: chains_multiCam_frameGrab_display

Capture -> Split -> Dup 

                    Dup -> FrameGrab_0
                    Dup -> FrameGrab_1
                    Dup -> FrameGrab_2
                    Dup -> FrameGrab_3
                    Dup -> FrameGrab_4
                    Dup -> FrameGrab_5

DispDistSrc_weston -> Display_m4
